{
  "1": {
    "content": [
      {
        "generalDescription": "<p><b>Property Location</b> <br />A stay at Novotel Paris Centre Tour Eiffel places you in the heart of Paris, walking distance from Statue of Liberty - Paris and Beaugrenelle. This 4-star hotel is close to Eiffel Tower and Arc de Triomphe.</p><p><b>Rooms",
        "hotelPhoto": {
          "url": "hotels/images/img-2-2863674507899127-37686.png"
        },
        "star": 4,
        "name": "Novotel Paris Centre Tour Eiffel",
        "id": 2815
      },
      {
        "generalDescription": "<p><b>Property Location</b> <br />Located in Paris (Gare Montparnasse - Porte de Versailles), Aparthotel Adagio Paris Centre Tour Eiffel is minutes from Beaugrenelle and Statue of Liberty - Paris. This 4-star residence is close to Eiffel Tower and Arc de ",
        "hotelPhoto": {
          "url": "hotels/images/img-2-2893485659278793-76594.png"
        },
        "star": 4,
        "name": "Aparthotel Adagio Paris Centre Tour Eiffel",
        "id": 11790
      },
      {
        "generalDescription": "<p><b>Property Location</b> <br />A stay at Hyatt Regency Paris Etoile places you in the heart of Paris, minutes from Palais des Congres de Paris and close to Arc de Triomphe. This 4-star hotel is close to Eiffel Tower and Louvre Museum.</p><p><b>Rooms</b",
        "hotelPhoto": {
          "url": "RXLImages/7/PAR-CONAhotel_Conference_facilities_1.jpg"
        },
        "star": 4,
        "name": "Hyatt Regency Paris Etoile",
        "id": 2871
      },
      {
        "generalDescription": "<p><b>Property Location</b> <br />With a stay at Hôtel Concorde Montparnasse, you'll be centrally located in Paris, steps from Place de Catalogne and minutes from Bobino. This 4-star hotel is close to Notre Dame Cathedral and Eiffel Tower.</p><p><b>Rooms<",
        "hotelPhoto": {
          "url": "RXLImages/7/PAR-BLE4hotel_Lobby_3.jpg"
        },
        "star": 4,
        "name": "Hotel Concorde Montparnasse",
        "id": 3506
      },
      {
        "generalDescription": "<p><b>Property Location</b> <br />With a stay at Pullman Paris Montparnasse, you'll be centrally located in Paris, steps from Place de Catalogne and minutes from Bobino. This 4-star hotel is close to Notre Dame Cathedral and Louvre Museum.</p><p><b>Rooms<",
        "hotelPhoto": {
          "url": "hotels/images/img-2-2840089671049534-36987.png"
        },
        "star": 4,
        "name": "Pullman Paris Montparnasse",
        "id": 2651
      },
      {
        "generalDescription": "<p><b>Property Location</b> <br />A stay at Royal Garden Champs-Elysées places you in the heart of Paris, minutes from Lido and close to Arc de Triomphe. This 4-star hotel is close to Eiffel Tower and Louvre Museum.</p><p><b>Rooms</b> <br />Stay in one of",
        "hotelPhoto": {
          "url": "hotels/images/img-2-2837512171384877-40785.png"
        },
        "star": 4,
        "name": "Royal Garden Champs-Elysées",
        "id": 3537
      },
      {
        "generalDescription": "<p><b>Property Location</b> <br />Located in Bagnolet (Pere Lachaise - Menilmontant), Novotel Paris Est is close to Hospital Robert-Debre and Philharmonie de Paris.  This 4-star hotel is within close proximity of Grande halle de la Villette and Bercy Aren",
        "hotelPhoto": {
          "url": "hotels/images/img-2-2863832682791606-3532694.png"
        },
        "star": 4,
        "name": "Novotel Paris Est",
        "id": 48228
      },
      {
        "generalDescription": "<p><b>Property Location</b> <br />A stay at Park & Suites Prestige Paris Grande Bibliotheque places you in the heart of Paris, minutes from Paris Diderot University and close to Notre Dame Cathedral. This 4-star residence is within close proximity of Nati",
        "hotelPhoto": {
          "url": "RXLImages/7/PAR-PARUhotel_Suite_3.jpg"
        },
        "star": 4,
        "name": "Appart'City Confort Paris Grande Bibliotheque",
        "id": 31637
      },
      {
        "generalDescription": "<p><b>Property Location</b> <br />With a stay at Mercure Paris Centre Tour Eiffel, you'll be centrally located in Paris, minutes from Pont de Bir-Hakeim and Eiffel Tower. This 4-star hotel is close to Arc de Triomphe and Louvre Museum.</p><p><b>Rooms</b> ",
        "hotelPhoto": {
          "url": "hotels/images/img-2-2854081457036098-37173.png"
        },
        "star": 4,
        "name": "Mercure Paris Centre Tour Eiffel",
        "id": 2696
      },
      {
        "generalDescription": "<p><b>Property Location</b> <br />With a stay at Best Western Premier Le Swann, you'll be centrally located in Paris, convenient to Musee Nissim de Camondo and Arc de Triomphe. This 4-star hotel is close to Louvre Museum and Eiffel Tower.</p><p><b>Rooms</",
        "hotelPhoto": {
          "url": "hotels/images/img-2-2859182734268938-37587.png"
        },
        "star": 4,
        "name": "Best Western Premier Le Swann",
        "id": 2791
      }
    ],
    "last": false,
    "totalPages": 112,
    "totalElements": 1113,
    "sort": null,
    "numberOfElements": 10,
    "first": true,
    "size": 10,
    "number": 0
  },
  "2": 
  "24": {
    "content": [
      {
        "generalDescription": "Located in Paris, the Republique Hotel is conveniently situated close to the Place de la Republique and the Canal Saint-Martin. This hotel is rated for its location and its cleanliness. The main hotel amenities are 24-hour front desk and elevator. Additio",
        "hotelPhoto": {
          "url": "hotels/images/img-2-2843843538812472-171749240.png"
        },
        "star": 3,
        "name": "Hôtel Beaurepaire",
        "id": 67113
      },
      {
        "generalDescription": "<p><b>Property Location</b> <br />With a stay at Le Pera, you'll be centrally located in Paris, steps from Edward VII Theater and Paris Olympia. This 4-star hotel is close to Louvre Museum and Arc de Triomphe.</p><p><b>Rooms</b> <br />Make yourself at hom",
        "hotelPhoto": {
          "url": "hotels/images/img-2-2840143583078723-39954.png"
        },
        "star": 4,
        "name": "Le Pera",
        "id": 3369
      },
      {
        "generalDescription": "<p><b>Property Location</b> <br />Juliana Paris is in the heart of Paris, walking distance from Theatre des Champs-Elysees and American University of Paris.  This 5-star hotel is close to Eiffel Tower and Arc de Triomphe.</p><p><b>Rooms</b> <br />Make you",
        "hotelPhoto": {
          "url": "RXLImages/1130/48/75/96/9748353_46_b.jpg"
        },
        "star": 5,
        "name": "Juliana",
        "id": 80937
      },
      {
        "generalDescription": "<p><b>Property Location</b> <br />Located in Paris (Louvre - Place Vendome), Hotel Cyrnos Opéra is minutes from Paris Bourse and Grevin Museum. This hotel is close to Louvre Museum and Notre Dame Cathedral.</p><p><b>Rooms</b> <br />Make yourself at home i",
        "hotelPhoto": {
          "url": "hotels/images/img-2-2894455518846663-1226011.png"
        },
        "star": 3,
        "name": "Hotel Cyrnos Opéra",
        "id": 33321
      },
      {
        "generalDescription": "“Situated on the Rue Volney, our hotel enjoys a privileged location in the heart of the capital, with the essential historical and cultural places of Paris just a few steps away.\n\nThus, in just a few minutes’ walk you can reach places that embody the magi",
        "hotelPhoto": null,
        "star": 3,
        "name": "Volney Opera",
        "id": 57385
      },
      {
        "generalDescription": "",
        "hotelPhoto": {
          "url": "hotels/images/img-2-2933606227344580-140813358.png"
        },
        "star": 4,
        "name": "Hotel De Josephine Bonaparte",
        "id": 60201
      },
      {
        "generalDescription": "",
        "hotelPhoto": null,
        "star": 3,
        "name": "Le Britannique",
        "id": 67114
      },
      {
        "generalDescription": "<p><b>Property Location</b> <br />A stay at Holiday Inn Paris - Saint Germain des Prés places you in the heart of Paris, walking distance from Le Bon Marche and Place Vavin. This 4-star hotel is close to Louvre Museum and Notre Dame Cathedral.</p><p><b>Ro",
        "hotelPhoto": {
          "url": "RXLImages/7/PAR-HOL5hotel_Other_1.jpg"
        },
        "star": 4,
        "name": "Holiday Inn Paris - Saint Germain des Prés",
        "id": 2858
      },
      {
        "generalDescription": "<p><b>Property Location</b> <br />With a stay at Hôtel Le 123 Elysées - Astotel in Paris (Champs Elysees), you'll be minutes from Jacquemart-Andre Museum and close to Arc de Triomphe. This 4-star hotel is close to Eiffel Tower and Louvre Museum.</p><p><b>",
        "hotelPhoto": {
          "url": "hotels/images/img-2-2880080488218329-38904.png"
        },
        "star": 4,
        "name": "Hôtel Le 123 Elysées - Astotel",
        "id": 3114
      },
      {
        "generalDescription": "Royal Fromentin is located right between Montmartre and Opera in the heart of Paris, just down the street from the famed Moulin Rouge where the French Cancan, portrayed by Toulouse Lautrec, has thrilled visitors to Paris since the Belle Epoque.  Many room",
        "hotelPhoto": {
          "url": "hotels/images/img-2-2854371251989465-69951299.png"
        },
        "star": 3,
        "name": "Hotel Royal Fromentin",
        "id": 80938
      }
    ],
    "last": false,
    "totalPages": 112,
    "totalElements": 1113,
    "sort": null,
    "numberOfElements": 10,
    "first": false,
    "size": 10,
    "number": 24
  },

}