{
  "content": [
    {
      "generalDescription": "<p><b>Property Location</b> <br />A stay at Novotel Paris Centre Tour Eiffel places you in the heart of Paris, walking distance from Statue of Liberty - Paris and Beaugrenelle. This 4-star hotel is close to Eiffel Tower and Arc de Triomphe.</p><p><b>Rooms",
      "star": 4,
      "hotelPhoto": {
        "url": "hotels/images/img-2-2863670516560515-37686.png"
      },
      "name": "Novotel Paris Centre Tour Eiffel",
      "id": 2815
    },
    {
      "generalDescription": "<p><b>Property Location</b> <br />Located in Paris (Gare Montparnasse - Porte de Versailles), Aparthotel Adagio Paris Centre Tour Eiffel is minutes from Beaugrenelle and Statue of Liberty - Paris. This 4-star residence is close to Eiffel Tower and Arc de ",
      "star": 4,
      "hotelPhoto": {
        "url": "hotels/images/img-2-2893486987328209-76594.png"
      },
      "name": "Aparthotel Adagio Paris Centre Tour Eiffel",
      "id": 11790
    },
    {
      "generalDescription": "<p><b>Property Location</b> <br />A stay at Hyatt Regency Paris Etoile places you in the heart of Paris, minutes from Palais des Congres de Paris and close to Arc de Triomphe. This 4-star hotel is close to Eiffel Tower and Louvre Museum.</p><p><b>Rooms</b",
      "star": 4,
      "hotelPhoto": {
        "url": "RXLImages/7/PAR-CONAhotel_Bar_1.jpg"
      },
      "name": "Hyatt Regency Paris Etoile",
      "id": 2871
    },
    {
      "generalDescription": "<p><b>Property Location</b> <br />With a stay at Hôtel Concorde Montparnasse, you'll be centrally located in Paris, steps from Place de Catalogne and minutes from Bobino. This 4-star hotel is close to Notre Dame Cathedral and Eiffel Tower.</p><p><b>Rooms<",
      "star": 4,
      "hotelPhoto": {
        "url": "RXLImages/7/PAR-BLE4hotel_Bar_Lounge_2.jpg"
      },
      "name": "Hotel Concorde Montparnasse",
      "id": 3506
    },
    {
      "generalDescription": "<p><b>Property Location</b> <br />With a stay at Pullman Paris Montparnasse, you'll be centrally located in Paris, steps from Place de Catalogne and minutes from Bobino. This 4-star hotel is close to Notre Dame Cathedral and Louvre Museum.</p><p><b>Rooms<",
      "star": 4,
      "hotelPhoto": {
        "url": "hotels/images/img-2-2840089671049534-36987.png"
      },
      "name": "Pullman Paris Montparnasse",
      "id": 2651
    },
    {
      "generalDescription": "<p><b>Property Location</b> <br />A stay at Royal Garden Champs-Elysées places you in the heart of Paris, minutes from Lido and close to Arc de Triomphe. This 4-star hotel is close to Eiffel Tower and Louvre Museum.</p><p><b>Rooms</b> <br />Stay in one of",
      "star": 4,
      "hotelPhoto": {
        "url": "hotels/images/img-2-2837512694900209-40785.png"
      },
      "name": "Royal Garden Champs-Elysées",
      "id": 3537
    },
    {
      "generalDescription": "<p><b>Property Location</b> <br />Located in Bagnolet (Pere Lachaise - Menilmontant), Novotel Paris Est is close to Hospital Robert-Debre and Philharmonie de Paris.  This 4-star hotel is within close proximity of Grande halle de la Villette and Bercy Aren",
      "star": 4,
      "hotelPhoto": {
        "url": "hotels/images/img-2-2863833271257422-3532694.png"
      },
      "name": "Novotel Paris Est",
      "id": 48228
    },
    {
      "generalDescription": "<p><b>Property Location</b> <br />A stay at Park & Suites Prestige Paris Grande Bibliotheque places you in the heart of Paris, minutes from Paris Diderot University and close to Notre Dame Cathedral. This 4-star residence is within close proximity of Nati",
      "star": 4,
      "hotelPhoto": {
        "url": "RXLImages/7/PAR-PARUhotel_Suite_4.jpg"
      },
      "name": "Appart'City Confort Paris Grande Bibliotheque",
      "id": 31637
    },
    {
      "generalDescription": "<p><b>Property Location</b> <br />With a stay at Mercure Paris Centre Tour Eiffel, you'll be centrally located in Paris, minutes from Pont de Bir-Hakeim and Eiffel Tower. This 4-star hotel is close to Arc de Triomphe and Louvre Museum.</p><p><b>Rooms</b> ",
      "star": 4,
      "hotelPhoto": {
        "url": "hotels/images/img-2-2854076780077577-37173.png"
      },
      "name": "Mercure Paris Centre Tour Eiffel",
      "id": 2696
    },
    {
      "generalDescription": "<p><b>Property Location</b> <br />With a stay at Best Western Premier Le Swann, you'll be centrally located in Paris, convenient to Musee Nissim de Camondo and Arc de Triomphe. This 4-star hotel is close to Louvre Museum and Eiffel Tower.</p><p><b>Rooms</",
      "star": 4,
      "hotelPhoto": {
        "url": "hotels/images/img-2-2859182734268938-37587.png"
      },
      "name": "Best Western Premier Le Swann",
      "id": 2791
    }
  ],
  "last": false,
  "totalElements": 1107,
  "totalPages": 111,
  "first": true,
  "sort": null,
  "numberOfElements": 10,
  "size": 10,
  "number": 0
}